{
    "name": "Movement",
    "maps": [
        {
            "name": "Move",
            "id": "b35c9475-f2c1-4cae-acea-0c7c1c5c0ad5",
            "actions": [
                {
                    "name": "Movement",
                    "type": "Button",
                    "id": "047418dd-52f1-4c9e-b6d5-23a2edc293a4",
                    "expectedControlType": "Button",
                    "processors": "",
                    "interactions": ""
                }
            ],
            "bindings": [
                {
                    "name": "walking",
                    "id": "67125202-3176-4fd4-a331-56b69fe3d7e4",
                    "path": "2DVector",
                    "interactions": "",
                    "processors": "",
                    "groups": "",
                    "action": "Movement",
                    "isComposite": true,
                    "isPartOfComposite": false
                },
                {
                    "name": "up",
                    "id": "824994a7-ba8b-4d6d-9970-c3e17dbb894d",
                    "path": "<Keyboard>/w",
                    "interactions": "",
                    "processors": "",
                    "groups": "",
                    "action": "Movement",
                    "isComposite": false,
                    "isPartOfComposite": true
                },
                {
                    "name": "down",
                    "id": "796e874a-720e-4683-814b-66cb3d9e49cb",
                    "path": "<Keyboard>/s",
                    "interactions": "",
                    "processors": "",
                    "groups": "",
                    "action": "Movement",
                    "isComposite": false,
                    "isPartOfComposite": true
                },
                {
                    "name": "left",
                    "id": "ba0b908c-6ef4-47c4-affd-9971430bdcb0",
                    "path": "<Keyboard>/a",
                    "interactions": "",
                    "processors": "",
                    "groups": "",
                    "action": "Movement",
                    "isComposite": false,
                    "isPartOfComposite": true
                },
                {
                    "name": "right",
                    "id": "faebf556-899a-4dac-a978-e2784b749171",
                    "path": "<Keyboard>/d",
                    "interactions": "",
                    "processors": "",
                    "groups": "",
                    "action": "Movement",
                    "isComposite": false,
                    "isPartOfComposite": true
                }
            ]
        }
    ],
    "controlSchemes": []
}